{
	"get": "coachs",
	"parameters": {
		"search": "guardiola"
	},
	"errors": [],
	"results": 1,
	"paging": {
		"current": 1,
		"total": 1
	},
	"response": [
		{
			"id": 4,
			"name": "Guardiola",
			"firstname": "Josep",
			"lastname": "Guardiola i Sala",
			"age": 51,
			"birth": {
				"date": "1971-01-18",
				"place": "Santpedor",
				"country": "Spain"
			},
			"nationality": "Spain",
			"height": "180 cm",
			"weight": "70 kg",
			"photo": "https:\/\/media.api-sports.io\/football\/coachs\/4.png",
			"team": {
				"id": 50,
				"name": "Manchester City",
				"logo": "https:\/\/media.api-sports.io\/football\/teams\/50.png"
			},
			"career": [
				{
					"team": {
						"id": 50,
						"name": "Manchester City",
						"logo": "https:\/\/media.api-sports.io\/football\/teams\/50.png"
					},
					"start": "2016-07-01",
					"end": null
				},
				{
					"team": {
						"id": 157,
						"name": "Bayern Munich",
						"logo": "https:\/\/media.api-sports.io\/football\/teams\/157.png"
					},
					"start": "2013-06-01",
					"end": "2016-06-01"
				},
				{
					"team": {
						"id": 529,
						"name": "Barcelona",
						"logo": "https:\/\/media.api-sports.io\/football\/teams\/529.png"
					},
					"start": "2008-07-01",
					"end": "2012-06-01"
				},
				{
					"team": {
						"id": 712,
						"name": "Barcelona II",
						"logo": "https:\/\/media.api-sports.io\/football\/teams\/712.png"
					},
					"start": "2007-06-01",
					"end": "2008-06-01"
				}
			]
		}
	]
}