{
	"get": "fixtures",
	"parameters": {
		"league": "39",
		"last": "1",
		"status": "PST"
	},
	"errors": [],
	"results": 1,
	"paging": {
		"current": 1,
		"total": 1
	},
	"response": [
		{
			"fixture": {
				"id": 710798,
				"referee": null,
				"timezone": "UTC",
				"date": "2022-02-12T15:00:00+00:00",
				"timestamp": 1644678000,
				"periods": {
					"first": null,
					"second": null
				},
				"venue": {
					"id": 519,
					"name": "Stamford Bridge",
					"city": "London"
				},
				"status": {
					"long": "Match Postponed",
					"short": "PST",
					"elapsed": null
				}
			},
			"league": {
				"id": 39,
				"name": "Premier League",
				"country": "England",
				"logo": "https:\/\/media.api-sports.io\/football\/leagues\/39.png",
				"flag": "https:\/\/media.api-sports.io\/flags\/gb.svg",
				"season": 2021,
				"round": "Regular Season - 25"
			},
			"teams": {
				"home": {
					"id": 49,
					"name": "Chelsea",
					"logo": "https:\/\/media.api-sports.io\/football\/teams\/49.png",
					"winner": null
				},
				"away": {
					"id": 42,
					"name": "Arsenal",
					"logo": "https:\/\/media.api-sports.io\/football\/teams\/42.png",
					"winner": null
				}
			},
			"goals": {
				"home": null,
				"away": null
			},
			"score": {
				"halftime": {
					"home": null,
					"away": null
				},
				"fulltime": {
					"home": null,
					"away": null
				},
				"extratime": {
					"home": null,
					"away": null
				},
				"penalty": {
					"home": null,
					"away": null
				}
			}
		}
	]
}