{
	"get": "fixtures",
	"parameters": {
		"team": "50",
		"last": "1"
	},
	"errors": [],
	"results": 1,
	"paging": {
		"current": 1,
		"total": 1
	},
	"response": [
		{
			"fixture": {
				"id": 710784,
				"referee": "S. Hooper",
				"timezone": "UTC",
				"date": "2022-01-22T17:30:00+00:00",
				"timestamp": 1642872600,
				"periods": {
					"first": 1642872600,
					"second": 1642876200
				},
				"venue": {
					"id": 585,
					"name": "St. Mary's Stadium",
					"city": "Southampton, Hampshire"
				},
				"status": {
					"long": "Match Finished",
					"short": "FT",
					"elapsed": 90
				}
			},
			"league": {
				"id": 39,
				"name": "Premier League",
				"country": "England",
				"logo": "https:\/\/media.api-sports.io\/football\/leagues\/39.png",
				"flag": "https:\/\/media.api-sports.io\/flags\/gb.svg",
				"season": 2021,
				"round": "Regular Season - 23"
			},
			"teams": {
				"home": {
					"id": 41,
					"name": "Southampton",
					"logo": "https:\/\/media.api-sports.io\/football\/teams\/41.png",
					"winner": null
				},
				"away": {
					"id": 50,
					"name": "Manchester City",
					"logo": "https:\/\/media.api-sports.io\/football\/teams\/50.png",
					"winner": null
				}
			},
			"goals": {
				"home": 1,
				"away": 1
			},
			"score": {
				"halftime": {
					"home": 1,
					"away": 0
				},
				"fulltime": {
					"home": 1,
					"away": 1
				},
				"extratime": {
					"home": null,
					"away": null
				},
				"penalty": {
					"home": null,
					"away": null
				}
			}
		}
	]
}