{
	"get": "leagues",
	"parameters": {
		"name": "premier league",
		"season": "2021",
		"country": "england"
	},
	"errors": [],
	"results": 1,
	"paging": {
		"current": 1,
		"total": 1
	},
	"response": [
		{
			"league": {
				"id": 39,
				"name": "Premier League",
				"type": "League",
				"logo": "https:\/\/media.api-sports.io\/football\/leagues\/39.png"
			},
			"country": {
				"name": "England",
				"code": "GB",
				"flag": "https:\/\/media.api-sports.io\/flags\/gb.svg"
			},
			"seasons": [
				{
					"year": 2021,
					"start": "2021-08-13",
					"end": "2022-05-22",
					"current": true,
					"coverage": {
						"fixtures": {
							"events": true,
							"lineups": true,
							"statistics_fixtures": true,
							"statistics_players": true
						},
						"standings": true,
						"players": true,
						"top_scorers": true,
						"top_assists": true,
						"top_cards": true,
						"injuries": true,
						"predictions": true,
						"odds": true
					}
				}
			]
		}
	]
}