{
	"get": "leagues\/seasons",
	"parameters": [],
	"errors": [],
	"results": 16,
	"paging": {
		"current": 1,
		"total": 1
	},
	"response": [
		2008,
		2009,
		2010,
		2011,
		2012,
		2013,
		2014,
		2015,
		2016,
		2017,
		2018,
		2019,
		2020,
		2021,
		2022,
		2023
	]
}