{
	"get": "fixtures\/events",
	"parameters": {
		"fixture": "710784",
		"team": "50"
	},
	"errors": [],
	"results": 2,
	"paging": {
		"current": 1,
		"total": 1
	},
	"response": [
		{
			"time": {
				"elapsed": 60,
				"extra": null
			},
			"team": {
				"id": 50,
				"name": "Manchester City",
				"logo": "https:\/\/media.api-sports.io\/football\/teams\/50.png"
			},
			"player": {
				"id": 645,
				"name": "R. Sterling"
			},
			"assist": {
				"id": 643,
				"name": "Gabriel Jesus"
			},
			"type": "subst",
			"detail": "Substitution 1",
			"comments": null
		},
		{
			"time": {
				"elapsed": 65,
				"extra": null
			},
			"team": {
				"id": 50,
				"name": "Manchester City",
				"logo": "https:\/\/media.api-sports.io\/football\/teams\/50.png"
			},
			"player": {
				"id": 622,
				"name": "Aymeric Laporte"
			},
			"assist": {
				"id": 629,
				"name": "K. De Bruyne"
			},
			"type": "Goal",
			"detail": "Normal Goal",
			"comments": null
		}
	]
}