{
	"get": "fixtures\/players",
	"parameters": {
		"fixture": "710784",
		"team": "50"
	},
	"errors": [],
	"results": 1,
	"paging": {
		"current": 1,
		"total": 1
	},
	"response": [
		{
			"team": {
				"id": 50,
				"name": "Manchester City",
				"logo": "https:\/\/media.api-sports.io\/football\/teams\/50.png",
				"update": "2022-01-25T04:41:15+00:00"
			},
			"players": [
				{
					"player": {
						"id": 617,
						"name": "Ederson",
						"photo": "https:\/\/media.api-sports.io\/football\/players\/617.png"
					},
					"statistics": [
						{
							"games": {
								"minutes": 90,
								"number": 31,
								"position": "G",
								"rating": "6.3",
								"captain": false,
								"substitute": false
							},
							"offsides": null,
							"shots": {
								"total": null,
								"on": null
							},
							"goals": {
								"total": null,
								"conceded": 1,
								"assists": null,
								"saves": 2
							},
							"passes": {
								"total": 28,
								"key": null,
								"accuracy": "25"
							},
							"tackles": {
								"total": null,
								"blocks": null,
								"interceptions": null
							},
							"duels": {
								"total": 1,
								"won": null
							},
							"dribbles": {
								"attempts": null,
								"success": null,
								"past": null
							},
							"fouls": {
								"drawn": null,
								"committed": null
							},
							"cards": {
								"yellow": 0,
								"red": 0
							},
							"penalty": {
								"won": null,
								"commited": null,
								"scored": 0,
								"missed": 0,
								"saved": 0
							}
						}
					]
				},
				{
					"player": {
						"id": 627,
						"name": "Kyle Walker",
						"photo": "https:\/\/media.api-sports.io\/football\/players\/627.png"
					},
					"statistics": [
						{
							"games": {
								"minutes": 90,
								"number": 2,
								"position": "D",
								"rating": "7.2",
								"captain": false,
								"substitute": false
							},
							"offsides": null,
							"shots": {
								"total": null,
								"on": null
							},
							"goals": {
								"total": null,
								"conceded": 0,
								"assists": null,
								"saves": null
							},
							"passes": {
								"total": 82,
								"key": 1,
								"accuracy": "73"
							},
							"tackles": {
								"total": 2,
								"blocks": null,
								"interceptions": 1
							},
							"duels": {
								"total": 4,
								"won": 3
							},
							"dribbles": {
								"attempts": null,
								"success": null,
								"past": null
							},
							"fouls": {
								"drawn": null,
								"committed": null
							},
							"cards": {
								"yellow": 0,
								"red": 0
							},
							"penalty": {
								"won": null,
								"commited": null,
								"scored": 0,
								"missed": 0,
								"saved": null
							}
						}
					]
				},
				{
					"player": {
						"id": 567,
						"name": "Rúben Dias",
						"photo": "https:\/\/media.api-sports.io\/football\/players\/567.png"
					},
					"statistics": [
						{
							"games": {
								"minutes": 90,
								"number": 3,
								"position": "D",
								"rating": "7.2",
								"captain": true,
								"substitute": false
							},
							"offsides": null,
							"shots": {
								"total": null,
								"on": null
							},
							"goals": {
								"total": null,
								"conceded": 0,
								"assists": null,
								"saves": null
							},
							"passes": {
								"total": 88,
								"key": 1,
								"accuracy": "82"
							},
							"tackles": {
								"total": 2,
								"blocks": null,
								"interceptions": 1
							},
							"duels": {
								"total": 12,
								"won": 8
							},
							"dribbles": {
								"attempts": null,
								"success": null,
								"past": null
							},
							"fouls": {
								"drawn": 2,
								"committed": 2
							},
							"cards": {
								"yellow": 0,
								"red": 0
							},
							"penalty": {
								"won": null,
								"commited": null,
								"scored": 0,
								"missed": 0,
								"saved": null
							}
						}
					]
				},
				{
					"player": {
						"id": 622,
						"name": "Aymeric Laporte",
						"photo": "https:\/\/media.api-sports.io\/football\/players\/622.png"
					},
					"statistics": [
						{
							"games": {
								"minutes": 90,
								"number": 14,
								"position": "D",
								"rating": "8.3",
								"captain": false,
								"substitute": false
							},
							"offsides": null,
							"shots": {
								"total": 2,
								"on": 1
							},
							"goals": {
								"total": 1,
								"conceded": 0,
								"assists": null,
								"saves": null
							},
							"passes": {
								"total": 92,
								"key": null,
								"accuracy": "88"
							},
							"tackles": {
								"total": 4,
								"blocks": 1,
								"interceptions": 1
							},
							"duels": {
								"total": 9,
								"won": 9
							},
							"dribbles": {
								"attempts": null,
								"success": null,
								"past": null
							},
							"fouls": {
								"drawn": 2,
								"committed": null
							},
							"cards": {
								"yellow": 0,
								"red": 0
							},
							"penalty": {
								"won": null,
								"commited": null,
								"scored": 0,
								"missed": 0,
								"saved": null
							}
						}
					]
				},
				{
					"player": {
						"id": 855,
						"name": "João Cancelo",
						"photo": "https:\/\/media.api-sports.io\/football\/players\/855.png"
					},
					"statistics": [
						{
							"games": {
								"minutes": 90,
								"number": 27,
								"position": "D",
								"rating": "7.7",
								"captain": false,
								"substitute": false
							},
							"offsides": null,
							"shots": {
								"total": 1,
								"on": null
							},
							"goals": {
								"total": null,
								"conceded": 0,
								"assists": null,
								"saves": null
							},
							"passes": {
								"total": 89,
								"key": 2,
								"accuracy": "79"
							},
							"tackles": {
								"total": 3,
								"blocks": null,
								"interceptions": 1
							},
							"duels": {
								"total": 12,
								"won": 8
							},
							"dribbles": {
								"attempts": 4,
								"success": 3,
								"past": null
							},
							"fouls": {
								"drawn": 1,
								"committed": null
							},
							"cards": {
								"yellow": 0,
								"red": 0
							},
							"penalty": {
								"won": null,
								"commited": null,
								"scored": 0,
								"missed": 0,
								"saved": null
							}
						}
					]
				},
				{
					"player": {
						"id": 636,
						"name": "Bernardo Silva",
						"photo": "https:\/\/media.api-sports.io\/football\/players\/636.png"
					},
					"statistics": [
						{
							"games": {
								"minutes": 90,
								"number": 20,
								"position": "M",
								"rating": "7.2",
								"captain": false,
								"substitute": false
							},
							"offsides": null,
							"shots": {
								"total": null,
								"on": null
							},
							"goals": {
								"total": null,
								"conceded": 0,
								"assists": null,
								"saves": null
							},
							"passes": {
								"total": 71,
								"key": 5,
								"accuracy": "62"
							},
							"tackles": {
								"total": 3,
								"blocks": null,
								"interceptions": 1
							},
							"duels": {
								"total": 11,
								"won": 7
							},
							"dribbles": {
								"attempts": 5,
								"success": 4,
								"past": 3
							},
							"fouls": {
								"drawn": null,
								"committed": null
							},
							"cards": {
								"yellow": 0,
								"red": 0
							},
							"penalty": {
								"won": null,
								"commited": null,
								"scored": 0,
								"missed": 0,
								"saved": null
							}
						}
					]
				},
				{
					"player": {
						"id": 44,
						"name": "Rodri",
						"photo": "https:\/\/media.api-sports.io\/football\/players\/44.png"
					},
					"statistics": [
						{
							"games": {
								"minutes": 90,
								"number": 16,
								"position": "M",
								"rating": "7.3",
								"captain": false,
								"substitute": false
							},
							"offsides": null,
							"shots": {
								"total": 3,
								"on": 1
							},
							"goals": {
								"total": null,
								"conceded": 0,
								"assists": null,
								"saves": null
							},
							"passes": {
								"total": 109,
								"key": null,
								"accuracy": "99"
							},
							"tackles": {
								"total": 2,
								"blocks": null,
								"interceptions": 1
							},
							"duels": {
								"total": 12,
								"won": 6
							},
							"dribbles": {
								"attempts": 1,
								"success": 1,
								"past": 3
							},
							"fouls": {
								"drawn": null,
								"committed": 1
							},
							"cards": {
								"yellow": 0,
								"red": 0
							},
							"penalty": {
								"won": null,
								"commited": null,
								"scored": 0,
								"missed": 0,
								"saved": null
							}
						}
					]
				},
				{
					"player": {
						"id": 629,
						"name": "Kevin De Bruyne",
						"photo": "https:\/\/media.api-sports.io\/football\/players\/629.png"
					},
					"statistics": [
						{
							"games": {
								"minutes": 90,
								"number": 17,
								"position": "M",
								"rating": "8.2",
								"captain": false,
								"substitute": false
							},
							"offsides": null,
							"shots": {
								"total": 3,
								"on": 1
							},
							"goals": {
								"total": null,
								"conceded": 0,
								"assists": 1,
								"saves": null
							},
							"passes": {
								"total": 64,
								"key": 3,
								"accuracy": "58"
							},
							"tackles": {
								"total": 2,
								"blocks": null,
								"interceptions": null
							},
							"duels": {
								"total": 9,
								"won": 5
							},
							"dribbles": {
								"attempts": 6,
								"success": 2,
								"past": null
							},
							"fouls": {
								"drawn": 1,
								"committed": null
							},
							"cards": {
								"yellow": 0,
								"red": 0
							},
							"penalty": {
								"won": null,
								"commited": null,
								"scored": 0,
								"missed": 0,
								"saved": null
							}
						}
					]
				},
				{
					"player": {
						"id": 645,
						"name": "Raheem Sterling",
						"photo": "https:\/\/media.api-sports.io\/football\/players\/645.png"
					},
					"statistics": [
						{
							"games": {
								"minutes": 60,
								"number": 7,
								"position": "F",
								"rating": "6.7",
								"captain": false,
								"substitute": false
							},
							"offsides": null,
							"shots": {
								"total": 2,
								"on": 1
							},
							"goals": {
								"total": null,
								"conceded": 0,
								"assists": null,
								"saves": null
							},
							"passes": {
								"total": 27,
								"key": null,
								"accuracy": "24"
							},
							"tackles": {
								"total": 1,
								"blocks": null,
								"interceptions": null
							},
							"duels": {
								"total": 13,
								"won": 5
							},
							"dribbles": {
								"attempts": 2,
								"success": 1,
								"past": 1
							},
							"fouls": {
								"drawn": 3,
								"committed": 2
							},
							"cards": {
								"yellow": 0,
								"red": 0
							},
							"penalty": {
								"won": null,
								"commited": null,
								"scored": 0,
								"missed": 0,
								"saved": null
							}
						}
					]
				},
				{
					"player": {
						"id": 19187,
						"name": "Jack Grealish",
						"photo": "https:\/\/media.api-sports.io\/football\/players\/19187.png"
					},
					"statistics": [
						{
							"games": {
								"minutes": 90,
								"number": 10,
								"position": "F",
								"rating": "6.9",
								"captain": false,
								"substitute": false
							},
							"offsides": null,
							"shots": {
								"total": null,
								"on": null
							},
							"goals": {
								"total": null,
								"conceded": 0,
								"assists": null,
								"saves": null
							},
							"passes": {
								"total": 43,
								"key": 1,
								"accuracy": "37"
							},
							"tackles": {
								"total": 1,
								"blocks": null,
								"interceptions": null
							},
							"duels": {
								"total": 13,
								"won": 7
							},
							"dribbles": {
								"attempts": 3,
								"success": 2,
								"past": null
							},
							"fouls": {
								"drawn": 3,
								"committed": null
							},
							"cards": {
								"yellow": 0,
								"red": 0
							},
							"penalty": {
								"won": null,
								"commited": null,
								"scored": 0,
								"missed": 0,
								"saved": null
							}
						}
					]
				},
				{
					"player": {
						"id": 631,
						"name": "Phil Foden",
						"photo": "https:\/\/media.api-sports.io\/football\/players\/631.png"
					},
					"statistics": [
						{
							"games": {
								"minutes": 90,
								"number": 47,
								"position": "F",
								"rating": "7.2",
								"captain": false,
								"substitute": false
							},
							"offsides": null,
							"shots": {
								"total": 1,
								"on": 1
							},
							"goals": {
								"total": null,
								"conceded": 0,
								"assists": null,
								"saves": null
							},
							"passes": {
								"total": 67,
								"key": 2,
								"accuracy": "59"
							},
							"tackles": {
								"total": 1,
								"blocks": null,
								"interceptions": 1
							},
							"duels": {
								"total": 6,
								"won": 2
							},
							"dribbles": {
								"attempts": 5,
								"success": 1,
								"past": null
							},
							"fouls": {
								"drawn": null,
								"committed": null
							},
							"cards": {
								"yellow": 0,
								"red": 0
							},
							"penalty": {
								"won": null,
								"commited": null,
								"scored": 0,
								"missed": 0,
								"saved": null
							}
						}
					]
				},
				{
					"player": {
						"id": 19197,
						"name": "Scott Carson",
						"photo": "https:\/\/media.api-sports.io\/football\/players\/19197.png"
					},
					"statistics": [
						{
							"games": {
								"minutes": null,
								"number": 33,
								"position": "G",
								"rating": null,
								"captain": false,
								"substitute": true
							},
							"offsides": null,
							"shots": {
								"total": null,
								"on": null
							},
							"goals": {
								"total": null,
								"conceded": 0,
								"assists": null,
								"saves": null
							},
							"passes": {
								"total": null,
								"key": null,
								"accuracy": null
							},
							"tackles": {
								"total": null,
								"blocks": null,
								"interceptions": null
							},
							"duels": {
								"total": null,
								"won": null
							},
							"dribbles": {
								"attempts": null,
								"success": null,
								"past": null
							},
							"fouls": {
								"drawn": null,
								"committed": null
							},
							"cards": {
								"yellow": 0,
								"red": 0
							},
							"penalty": {
								"won": null,
								"commited": null,
								"scored": 0,
								"missed": 0,
								"saved": null
							}
						}
					]
				},
				{
					"player": {
						"id": 158702,
						"name": "Cieran Slicker",
						"photo": "https:\/\/media.api-sports.io\/football\/players\/158702.png"
					},
					"statistics": [
						{
							"games": {
								"minutes": null,
								"number": 84,
								"position": "G",
								"rating": null,
								"captain": false,
								"substitute": true
							},
							"offsides": null,
							"shots": {
								"total": null,
								"on": null
							},
							"goals": {
								"total": null,
								"conceded": 0,
								"assists": null,
								"saves": null
							},
							"passes": {
								"total": null,
								"key": null,
								"accuracy": null
							},
							"tackles": {
								"total": null,
								"blocks": null,
								"interceptions": null
							},
							"duels": {
								"total": null,
								"won": null
							},
							"dribbles": {
								"attempts": null,
								"success": null,
								"past": null
							},
							"fouls": {
								"drawn": null,
								"committed": null
							},
							"cards": {
								"yellow": 0,
								"red": 0
							},
							"penalty": {
								"won": null,
								"commited": null,
								"scored": 0,
								"missed": 0,
								"saved": null
							}
						}
					]
				},
				{
					"player": {
						"id": 18861,
						"name": "Nathan Aké",
						"photo": "https:\/\/media.api-sports.io\/football\/players\/18861.png"
					},
					"statistics": [
						{
							"games": {
								"minutes": null,
								"number": 6,
								"position": "D",
								"rating": null,
								"captain": false,
								"substitute": true
							},
							"offsides": null,
							"shots": {
								"total": null,
								"on": null
							},
							"goals": {
								"total": null,
								"conceded": 0,
								"assists": null,
								"saves": null
							},
							"passes": {
								"total": null,
								"key": null,
								"accuracy": null
							},
							"tackles": {
								"total": null,
								"blocks": null,
								"interceptions": null
							},
							"duels": {
								"total": null,
								"won": null
							},
							"dribbles": {
								"attempts": null,
								"success": null,
								"past": null
							},
							"fouls": {
								"drawn": null,
								"committed": null
							},
							"cards": {
								"yellow": 0,
								"red": 0
							},
							"penalty": {
								"won": null,
								"commited": null,
								"scored": 0,
								"missed": 0,
								"saved": null
							}
						}
					]
				},
				{
					"player": {
						"id": 626,
						"name": "John Stones",
						"photo": "https:\/\/media.api-sports.io\/football\/players\/626.png"
					},
					"statistics": [
						{
							"games": {
								"minutes": null,
								"number": 5,
								"position": "D",
								"rating": null,
								"captain": false,
								"substitute": true
							},
							"offsides": null,
							"shots": {
								"total": null,
								"on": null
							},
							"goals": {
								"total": null,
								"conceded": 0,
								"assists": null,
								"saves": null
							},
							"passes": {
								"total": null,
								"key": null,
								"accuracy": null
							},
							"tackles": {
								"total": null,
								"blocks": null,
								"interceptions": null
							},
							"duels": {
								"total": null,
								"won": null
							},
							"dribbles": {
								"attempts": null,
								"success": null,
								"past": null
							},
							"fouls": {
								"drawn": null,
								"committed": null
							},
							"cards": {
								"yellow": 0,
								"red": 0
							},
							"penalty": {
								"won": null,
								"commited": null,
								"scored": 0,
								"missed": 0,
								"saved": null
							}
						}
					]
				},
				{
					"player": {
						"id": 278128,
						"name": "Josh Wilson-Esbrand",
						"photo": "https:\/\/media.api-sports.io\/football\/players\/278128.png"
					},
					"statistics": [
						{
							"games": {
								"minutes": null,
								"number": 97,
								"position": "D",
								"rating": null,
								"captain": false,
								"substitute": true
							},
							"offsides": null,
							"shots": {
								"total": null,
								"on": null
							},
							"goals": {
								"total": null,
								"conceded": 0,
								"assists": null,
								"saves": null
							},
							"passes": {
								"total": null,
								"key": null,
								"accuracy": null
							},
							"tackles": {
								"total": null,
								"blocks": null,
								"interceptions": null
							},
							"duels": {
								"total": null,
								"won": null
							},
							"dribbles": {
								"attempts": null,
								"success": null,
								"past": null
							},
							"fouls": {
								"drawn": null,
								"committed": null
							},
							"cards": {
								"yellow": 0,
								"red": 0
							},
							"penalty": {
								"won": null,
								"commited": null,
								"scored": 0,
								"missed": 0,
								"saved": null
							}
						}
					]
				},
				{
					"player": {
						"id": 640,
						"name": "Fernandinho",
						"photo": "https:\/\/media.api-sports.io\/football\/players\/640.png"
					},
					"statistics": [
						{
							"games": {
								"minutes": null,
								"number": 25,
								"position": "M",
								"rating": null,
								"captain": false,
								"substitute": true
							},
							"offsides": null,
							"shots": {
								"total": null,
								"on": null
							},
							"goals": {
								"total": null,
								"conceded": 0,
								"assists": null,
								"saves": null
							},
							"passes": {
								"total": null,
								"key": null,
								"accuracy": null
							},
							"tackles": {
								"total": null,
								"blocks": null,
								"interceptions": null
							},
							"duels": {
								"total": null,
								"won": null
							},
							"dribbles": {
								"attempts": null,
								"success": null,
								"past": null
							},
							"fouls": {
								"drawn": null,
								"committed": null
							},
							"cards": {
								"yellow": 0,
								"red": 0
							},
							"penalty": {
								"won": null,
								"commited": null,
								"scored": 0,
								"missed": 0,
								"saved": null
							}
						}
					]
				},
				{
					"player": {
						"id": 633,
						"name": "İlkay Gündoğan",
						"photo": "https:\/\/media.api-sports.io\/football\/players\/633.png"
					},
					"statistics": [
						{
							"games": {
								"minutes": null,
								"number": 8,
								"position": "M",
								"rating": null,
								"captain": false,
								"substitute": true
							},
							"offsides": null,
							"shots": {
								"total": null,
								"on": null
							},
							"goals": {
								"total": null,
								"conceded": 0,
								"assists": null,
								"saves": null
							},
							"passes": {
								"total": null,
								"key": null,
								"accuracy": null
							},
							"tackles": {
								"total": null,
								"blocks": null,
								"interceptions": null
							},
							"duels": {
								"total": null,
								"won": null
							},
							"dribbles": {
								"attempts": null,
								"success": null,
								"past": null
							},
							"fouls": {
								"drawn": null,
								"committed": null
							},
							"cards": {
								"yellow": 0,
								"red": 0
							},
							"penalty": {
								"won": null,
								"commited": null,
								"scored": 0,
								"missed": 0,
								"saved": null
							}
						}
					]
				},
				{
					"player": {
						"id": 158697,
						"name": "James McAtee",
						"photo": "https:\/\/media.api-sports.io\/football\/players\/158697.png"
					},
					"statistics": [
						{
							"games": {
								"minutes": null,
								"number": 87,
								"position": "M",
								"rating": null,
								"captain": false,
								"substitute": true
							},
							"offsides": null,
							"shots": {
								"total": null,
								"on": null
							},
							"goals": {
								"total": null,
								"conceded": 0,
								"assists": null,
								"saves": null
							},
							"passes": {
								"total": null,
								"key": null,
								"accuracy": null
							},
							"tackles": {
								"total": null,
								"blocks": null,
								"interceptions": null
							},
							"duels": {
								"total": null,
								"won": null
							},
							"dribbles": {
								"attempts": null,
								"success": null,
								"past": null
							},
							"fouls": {
								"drawn": null,
								"committed": null
							},
							"cards": {
								"yellow": 0,
								"red": 0
							},
							"penalty": {
								"won": null,
								"commited": null,
								"scored": 0,
								"missed": 0,
								"saved": null
							}
						}
					]
				},
				{
					"player": {
						"id": 643,
						"name": "Gabriel Jesus",
						"photo": "https:\/\/media.api-sports.io\/football\/players\/643.png"
					},
					"statistics": [
						{
							"games": {
								"minutes": 30,
								"number": 9,
								"position": "F",
								"rating": "6.3",
								"captain": false,
								"substitute": true
							},
							"offsides": null,
							"shots": {
								"total": 1,
								"on": null
							},
							"goals": {
								"total": null,
								"conceded": 0,
								"assists": null,
								"saves": null
							},
							"passes": {
								"total": 17,
								"key": null,
								"accuracy": "14"
							},
							"tackles": {
								"total": null,
								"blocks": null,
								"interceptions": 1
							},
							"duels": {
								"total": 3,
								"won": 2
							},
							"dribbles": {
								"attempts": 1,
								"success": 1,
								"past": 1
							},
							"fouls": {
								"drawn": 1,
								"committed": null
							},
							"cards": {
								"yellow": 0,
								"red": 0
							},
							"penalty": {
								"won": null,
								"commited": null,
								"scored": 0,
								"missed": 0,
								"saved": null
							}
						}
					]
				}
			]
		}
	]
}