{
	"get": "fixtures\/statistics",
	"parameters": {
		"fixture": "710784",
		"team": "50",
		"type": "ball possession"
	},
	"errors": [],
	"results": 1,
	"paging": {
		"current": 1,
		"total": 1
	},
	"response": [
		{
			"team": {
				"id": 50,
				"name": "Manchester City",
				"logo": "https:\/\/media.api-sports.io\/football\/teams\/50.png"
			},
			"statistics": [
				{
					"type": "Ball Possession",
					"value": "74%"
				}
			]
		}
	]
}